mic1/simulation/qsim/mic1.msim.vcd
$comment
	File created using the following command:
		vcd file mic1.msim.vcd -direction
$end
$date
	Thu Mar 14 14:41:45 2024
$end
$version
	ModelSim Version 10.1d
$end
$timescale
	1ps
$end
$scope module decoder3to8_vlg_vec_tst $end
$var reg 1 ! a $end
$var reg 1 " b $end
$var reg 1 # c $end
$var wire 1 $ s0 $end
$var wire 1 % s1 $end
$var wire 1 & s2 $end
$var wire 1 ' s3 $end
$var wire 1 ( s4 $end
$var wire 1 ) s5 $end
$var wire 1 * s6 $end
$var wire 1 + s7 $end
$var wire 1 , sampler $end
$scope module i1 $end
$var wire 1 - gnd $end
$var wire 1 . vcc $end
$var wire 1 / unknown $end
$var tri1 1 0 devclrn $end
$var tri1 1 1 devpor $end
$var tri1 1 2 devoe $end
$var wire 1 3 a~combout $end
$var wire 1 4 b~combout $end
$var wire 1 5 c~combout $end
$var wire 1 6 inst~0_combout $end
$var wire 1 7 inst~1_combout $end
$var wire 1 8 inst~2_combout $end
$var wire 1 9 inst~3_combout $end
$var wire 1 : inst~4_combout $end
$var wire 1 ; inst~5_combout $end
$var wire 1 < inst~6_combout $end
$upscope $end
$upscope $end
$enddefinitions $end
#0
$dumpvars
0!
0"
0#
1$
0%
0&
0'
0(
0)
0*
0+
x,
0-
1.
x/
10
11
12
03
04
05
06
07
08
09
0:
0;
0<
$end
#125000
1#
15
0,
17
1%
#250000
1"
0#
14
05
1,
18
07
1&
0%
#375000
1#
15
0,
19
08
1'
0&
#500000
1!
0"
0#
13
04
05
1,
1:
09
1(
0'
#625000
1#
15
0,
1;
0:
1)
0(
#750000
1"
0#
14
05
1,
1<
0;
1*
0)
#875000
1#
15
0,
0<
16
0*
1+
0$
