mic1/simulation/qsim/mic1.msim.vcd
$comment
	File created using the following command:
		vcd file mic1.msim.vcd -direction
$end
$date
	Fri Jul 19 16:34:51 2024
$end
$version
	ModelSim Version 10.1d
$end
$timescale
	1ps
$end
$scope module ULA_32bit_vlg_vec_tst $end
$var reg 32 ! A [31:0] $end
$var reg 32 " B [31:0] $end
$var reg 1 # CIN $end
$var reg 1 $ ENA $end
$var reg 1 % ENB $end
$var reg 1 & F0 $end
$var reg 1 ' F1 $end
$var reg 1 ( INVA $end
$var wire 1 ) COUT $end
$var wire 1 * OUTPUT [31] $end
$var wire 1 + OUTPUT [30] $end
$var wire 1 , OUTPUT [29] $end
$var wire 1 - OUTPUT [28] $end
$var wire 1 . OUTPUT [27] $end
$var wire 1 / OUTPUT [26] $end
$var wire 1 0 OUTPUT [25] $end
$var wire 1 1 OUTPUT [24] $end
$var wire 1 2 OUTPUT [23] $end
$var wire 1 3 OUTPUT [22] $end
$var wire 1 4 OUTPUT [21] $end
$var wire 1 5 OUTPUT [20] $end
$var wire 1 6 OUTPUT [19] $end
$var wire 1 7 OUTPUT [18] $end
$var wire 1 8 OUTPUT [17] $end
$var wire 1 9 OUTPUT [16] $end
$var wire 1 : OUTPUT [15] $end
$var wire 1 ; OUTPUT [14] $end
$var wire 1 < OUTPUT [13] $end
$var wire 1 = OUTPUT [12] $end
$var wire 1 > OUTPUT [11] $end
$var wire 1 ? OUTPUT [10] $end
$var wire 1 @ OUTPUT [9] $end
$var wire 1 A OUTPUT [8] $end
$var wire 1 B OUTPUT [7] $end
$var wire 1 C OUTPUT [6] $end
$var wire 1 D OUTPUT [5] $end
$var wire 1 E OUTPUT [4] $end
$var wire 1 F OUTPUT [3] $end
$var wire 1 G OUTPUT [2] $end
$var wire 1 H OUTPUT [1] $end
$var wire 1 I OUTPUT [0] $end
$var wire 1 J sampler $end
$scope module i1 $end
$var wire 1 K gnd $end
$var wire 1 L vcc $end
$var wire 1 M unknown $end
$var tri1 1 N devclrn $end
$var tri1 1 O devpor $end
$var tri1 1 P devoe $end
$var wire 1 Q inst4|inst7|inst43~combout $end
$var wire 1 R inst4|inst6|inst8~combout $end
$var wire 1 S inst3|inst3|inst43~combout $end
$var wire 1 T inst|inst6|inst43~combout $end
$var wire 1 U inst|inst5|inst8~combout $end
$var wire 1 V inst|inst4|inst43~combout $end
$var wire 1 W inst3|inst|inst|inst9|1~0_combout $end
$var wire 1 X INVA~combout $end
$var wire 1 Y inst4|inst7|inst8~combout $end
$var wire 1 Z F1~combout $end
$var wire 1 [ F0~combout $end
$var wire 1 \ inst|inst7|inst2|inst2~0_combout $end
$var wire 1 ] ENB~combout $end
$var wire 1 ^ inst4|inst5|inst43~combout $end
$var wire 1 _ ENA~combout $end
$var wire 1 ` inst4|inst5|inst8~combout $end
$var wire 1 a inst4|inst5|inst|inst9|1~0_combout $end
$var wire 1 b inst4|inst6|inst43~combout $end
$var wire 1 c inst4|inst6|inst|inst9|1~0_combout $end
$var wire 1 d inst4|inst7|inst|inst9|1~0_combout $end
$var wire 1 e inst4|inst8|inst43~combout $end
$var wire 1 f inst4|inst8|inst8~combout $end
$var wire 1 g inst4|inst8|inst|inst9|1~0_combout $end
$var wire 1 h inst4|inst8|inst|inst8|3~4_combout $end
$var wire 1 i inst4|inst8|inst14~0_combout $end
$var wire 1 j inst4|inst8|inst14~1_combout $end
$var wire 1 k inst4|inst7|inst|inst8|3~4_combout $end
$var wire 1 l inst4|inst7|inst14~0_combout $end
$var wire 1 m inst4|inst7|inst14~1_combout $end
$var wire 1 n inst4|inst6|inst14~0_combout $end
$var wire 1 o inst4|inst6|inst|inst8|3~4_combout $end
$var wire 1 p inst4|inst6|inst14~1_combout $end
$var wire 1 q inst4|inst4|inst43~combout $end
$var wire 1 r inst4|inst4|inst8~combout $end
$var wire 1 s inst4|inst4|inst|inst9|1~0_combout $end
$var wire 1 t inst4|inst5|inst|inst8|3~4_combout $end
$var wire 1 u inst4|inst5|inst14~0_combout $end
$var wire 1 v inst4|inst5|inst14~1_combout $end
$var wire 1 w inst4|inst3|inst43~combout $end
$var wire 1 x inst4|inst2|inst43~combout $end
$var wire 1 y inst4|inst2|inst8~combout $end
$var wire 1 z inst4|inst2|inst|inst9|1~0_combout $end
$var wire 1 { inst4|inst3|inst8~combout $end
$var wire 1 | inst4|inst3|inst|inst9|1~0_combout $end
$var wire 1 } inst4|inst4|inst|inst8|3~0_combout $end
$var wire 1 ~ inst4|inst4|inst14~0_combout $end
$var wire 1 !! inst4|inst4|inst14~1_combout $end
$var wire 1 "! inst4|inst3|inst14~0_combout $end
$var wire 1 #! inst4|inst3|inst|inst8|3~0_combout $end
$var wire 1 $! inst4|inst3|inst14~1_combout $end
$var wire 1 %! inst4|inst|inst43~combout $end
$var wire 1 &! inst3|inst7|inst8~combout $end
$var wire 1 '! inst3|inst7|inst43~combout $end
$var wire 1 (! inst3|inst7|inst|inst9|1~0_combout $end
$var wire 1 )! inst3|inst8|inst43~combout $end
$var wire 1 *! inst3|inst8|inst8~combout $end
$var wire 1 +! inst3|inst8|inst|inst9|1~0_combout $end
$var wire 1 ,! inst4|inst|inst8~combout $end
$var wire 1 -! inst4|inst|inst|inst9|1~0_combout $end
$var wire 1 .! inst4|inst2|inst|inst8|3~4_combout $end
$var wire 1 /! inst4|inst2|inst14~0_combout $end
$var wire 1 0! inst4|inst2|inst14~1_combout $end
$var wire 1 1! inst4|inst|inst14~0_combout $end
$var wire 1 2! inst4|inst|inst|inst~combout $end
$var wire 1 3! inst4|inst|inst14~1_combout $end
$var wire 1 4! inst3|inst8|inst|inst8|3~0_combout $end
$var wire 1 5! inst3|inst8|inst14~0_combout $end
$var wire 1 6! inst3|inst8|inst14~1_combout $end
$var wire 1 7! inst3|inst7|inst14~0_combout $end
$var wire 1 8! inst3|inst6|inst8~combout $end
$var wire 1 9! inst3|inst5|inst43~combout $end
$var wire 1 :! inst3|inst2|inst43~combout $end
$var wire 1 ;! inst3|inst2|inst8~combout $end
$var wire 1 <! inst3|inst2|inst|inst9|1~0_combout $end
$var wire 1 =! inst3|inst3|inst8~combout $end
$var wire 1 >! inst3|inst3|inst|inst9|1~0_combout $end
$var wire 1 ?! inst3|inst4|inst43~combout $end
$var wire 1 @! inst3|inst4|inst8~combout $end
$var wire 1 A! inst3|inst4|inst|inst9|1~0_combout $end
$var wire 1 B! inst3|inst5|inst8~combout $end
$var wire 1 C! inst3|inst5|inst|inst9|1~0_combout $end
$var wire 1 D! inst3|inst6|inst43~combout $end
$var wire 1 E! inst3|inst6|inst|inst9|1~0_combout $end
$var wire 1 F! inst3|inst7|inst|inst8|3~0_combout $end
$var wire 1 G! inst3|inst7|inst14~1_combout $end
$var wire 1 H! inst3|inst6|inst|inst~combout $end
$var wire 1 I! inst3|inst6|inst14~0_combout $end
$var wire 1 J! inst3|inst6|inst14~1_combout $end
$var wire 1 K! inst3|inst5|inst14~0_combout $end
$var wire 1 L! inst3|inst5|inst|inst~combout $end
$var wire 1 M! inst3|inst5|inst14~1_combout $end
$var wire 1 N! inst3|inst4|inst14~0_combout $end
$var wire 1 O! inst3|inst4|inst|inst~combout $end
$var wire 1 P! inst3|inst4|inst14~1_combout $end
$var wire 1 Q! inst3|inst3|inst14~0_combout $end
$var wire 1 R! inst3|inst3|inst|inst8|3~0_combout $end
$var wire 1 S! inst3|inst3|inst14~1_combout $end
$var wire 1 T! inst3|inst2|inst14~0_combout $end
$var wire 1 U! inst3|inst2|inst|inst~combout $end
$var wire 1 V! inst3|inst2|inst14~1_combout $end
$var wire 1 W! inst|inst8|inst43~combout $end
$var wire 1 X! inst|inst8|inst8~combout $end
$var wire 1 Y! inst|inst8|inst|inst9|1~0_combout $end
$var wire 1 Z! inst3|inst|inst43~combout $end
$var wire 1 [! inst3|inst|inst8~combout $end
$var wire 1 \! inst3|inst|inst14~0_combout $end
$var wire 1 ]! inst3|inst|inst|inst8|3~4_combout $end
$var wire 1 ^! inst3|inst|inst14~1_combout $end
$var wire 1 _! inst|inst7|inst8~combout $end
$var wire 1 `! inst|inst7|inst43~combout $end
$var wire 1 a! inst|inst7|inst|inst9|1~0_combout $end
$var wire 1 b! inst|inst8|inst14~0_combout $end
$var wire 1 c! inst|inst8|inst|inst8|3~0_combout $end
$var wire 1 d! inst|inst8|inst14~1_combout $end
$var wire 1 e! inst|inst7|inst|inst8|3~0_combout $end
$var wire 1 f! inst|inst7|inst14~0_combout $end
$var wire 1 g! inst|inst3|inst43~combout $end
$var wire 1 h! inst|inst3|inst8~combout $end
$var wire 1 i! inst|inst3|inst|inst9|1~0_combout $end
$var wire 1 j! inst|inst4|inst8~combout $end
$var wire 1 k! inst|inst4|inst|inst9|1~0_combout $end
$var wire 1 l! inst|inst5|inst43~combout $end
$var wire 1 m! inst|inst5|inst|inst9|1~0_combout $end
$var wire 1 n! inst|inst6|inst8~combout $end
$var wire 1 o! inst|inst6|inst|inst9|1~0_combout $end
$var wire 1 p! inst|inst7|inst14~1_combout $end
$var wire 1 q! inst|inst6|inst|inst8|3~4_combout $end
$var wire 1 r! inst|inst6|inst14~0_combout $end
$var wire 1 s! inst|inst6|inst14~1_combout $end
$var wire 1 t! inst|inst5|inst14~0_combout $end
$var wire 1 u! inst|inst5|inst|inst~combout $end
$var wire 1 v! inst|inst5|inst14~1_combout $end
$var wire 1 w! inst|inst4|inst|inst~combout $end
$var wire 1 x! inst|inst4|inst14~0_combout $end
$var wire 1 y! inst|inst4|inst14~1_combout $end
$var wire 1 z! inst|inst3|inst14~0_combout $end
$var wire 1 {! inst|inst2|inst43~combout $end
$var wire 1 |! inst|inst2|inst8~combout $end
$var wire 1 }! inst|inst2|inst|inst9|1~0_combout $end
$var wire 1 ~! inst|inst3|inst|inst8|3~4_combout $end
$var wire 1 !" inst|inst3|inst14~1_combout $end
$var wire 1 "" inst|inst2|inst|inst8|3~0_combout $end
$var wire 1 #" inst|inst2|inst14~0_combout $end
$var wire 1 $" inst|inst|inst43~combout $end
$var wire 1 %" inst|inst|inst8~combout $end
$var wire 1 &" inst|inst|inst|inst9|1~0_combout $end
$var wire 1 '" inst|inst2|inst14~1_combout $end
$var wire 1 (" inst1|inst8|inst8~combout $end
$var wire 1 )" inst1|inst7|inst43~combout $end
$var wire 1 *" inst1|inst7|inst8~combout $end
$var wire 1 +" inst1|inst7|inst|inst9|1~0_combout $end
$var wire 1 ," inst1|inst8|inst|inst9|1~0_combout $end
$var wire 1 -" inst|inst|inst|inst8|3~0_combout $end
$var wire 1 ." inst|inst|inst14~0_combout $end
$var wire 1 /" inst|inst|inst14~1_combout $end
$var wire 1 0" inst1|inst8|inst43~combout $end
$var wire 1 1" inst1|inst8|inst14~0_combout $end
$var wire 1 2" inst1|inst8|inst|inst~combout $end
$var wire 1 3" inst1|inst8|inst14~1_combout $end
$var wire 1 4" inst1|inst7|inst14~0_combout $end
$var wire 1 5" inst1|inst6|inst8~combout $end
$var wire 1 6" inst1|inst6|inst43~combout $end
$var wire 1 7" inst1|inst6|inst|inst9|1~0_combout $end
$var wire 1 8" inst1|inst7|inst|inst8|3~0_combout $end
$var wire 1 9" inst1|inst7|inst14~1_combout $end
$var wire 1 :" inst1|inst6|inst|inst8|3~0_combout $end
$var wire 1 ;" inst1|inst6|inst14~0_combout $end
$var wire 1 <" inst1|inst5|inst8~combout $end
$var wire 1 =" inst1|inst5|inst43~combout $end
$var wire 1 >" inst1|inst4|inst8~combout $end
$var wire 1 ?" inst1|inst|inst43~combout $end
$var wire 1 @" CIN~combout $end
$var wire 1 A" inst1|inst|inst|inst9|1~0_combout $end
$var wire 1 B" inst1|inst2|inst43~combout $end
$var wire 1 C" inst1|inst2|inst8~combout $end
$var wire 1 D" inst1|inst2|inst|inst9|1~0_combout $end
$var wire 1 E" inst1|inst3|inst43~combout $end
$var wire 1 F" inst1|inst3|inst8~combout $end
$var wire 1 G" inst1|inst3|inst|inst9|1~0_combout $end
$var wire 1 H" inst1|inst4|inst43~combout $end
$var wire 1 I" inst1|inst4|inst|inst9|1~0_combout $end
$var wire 1 J" inst1|inst5|inst|inst9|1~0_combout $end
$var wire 1 K" inst1|inst6|inst14~1_combout $end
$var wire 1 L" inst1|inst5|inst|inst8|3~0_combout $end
$var wire 1 M" inst1|inst5|inst14~0_combout $end
$var wire 1 N" inst1|inst5|inst14~1_combout $end
$var wire 1 O" inst1|inst4|inst|inst8|3~0_combout $end
$var wire 1 P" inst1|inst4|inst14~0_combout $end
$var wire 1 Q" inst1|inst4|inst14~1_combout $end
$var wire 1 R" inst1|inst3|inst14~0_combout $end
$var wire 1 S" inst1|inst3|inst|inst~combout $end
$var wire 1 T" inst1|inst3|inst14~1_combout $end
$var wire 1 U" inst1|inst2|inst14~0_combout $end
$var wire 1 V" inst1|inst2|inst|inst8|3~4_combout $end
$var wire 1 W" inst1|inst2|inst14~1_combout $end
$var wire 1 X" inst1|inst|inst|inst8|3~0_combout $end
$var wire 1 Y" inst1|inst|inst14~0_combout $end
$var wire 1 Z" inst1|inst|inst14~1_combout $end
$var wire 1 [" inst1|inst|inst8~combout $end
$var wire 1 \" inst1|inst|inst14~2_combout $end
$var wire 1 ]" B~combout [31] $end
$var wire 1 ^" B~combout [30] $end
$var wire 1 _" B~combout [29] $end
$var wire 1 `" B~combout [28] $end
$var wire 1 a" B~combout [27] $end
$var wire 1 b" B~combout [26] $end
$var wire 1 c" B~combout [25] $end
$var wire 1 d" B~combout [24] $end
$var wire 1 e" B~combout [23] $end
$var wire 1 f" B~combout [22] $end
$var wire 1 g" B~combout [21] $end
$var wire 1 h" B~combout [20] $end
$var wire 1 i" B~combout [19] $end
$var wire 1 j" B~combout [18] $end
$var wire 1 k" B~combout [17] $end
$var wire 1 l" B~combout [16] $end
$var wire 1 m" B~combout [15] $end
$var wire 1 n" B~combout [14] $end
$var wire 1 o" B~combout [13] $end
$var wire 1 p" B~combout [12] $end
$var wire 1 q" B~combout [11] $end
$var wire 1 r" B~combout [10] $end
$var wire 1 s" B~combout [9] $end
$var wire 1 t" B~combout [8] $end
$var wire 1 u" B~combout [7] $end
$var wire 1 v" B~combout [6] $end
$var wire 1 w" B~combout [5] $end
$var wire 1 x" B~combout [4] $end
$var wire 1 y" B~combout [3] $end
$var wire 1 z" B~combout [2] $end
$var wire 1 {" B~combout [1] $end
$var wire 1 |" B~combout [0] $end
$var wire 1 }" A~combout [31] $end
$var wire 1 ~" A~combout [30] $end
$var wire 1 !# A~combout [29] $end
$var wire 1 "# A~combout [28] $end
$var wire 1 ## A~combout [27] $end
$var wire 1 $# A~combout [26] $end
$var wire 1 %# A~combout [25] $end
$var wire 1 &# A~combout [24] $end
$var wire 1 '# A~combout [23] $end
$var wire 1 (# A~combout [22] $end
$var wire 1 )# A~combout [21] $end
$var wire 1 *# A~combout [20] $end
$var wire 1 +# A~combout [19] $end
$var wire 1 ,# A~combout [18] $end
$var wire 1 -# A~combout [17] $end
$var wire 1 .# A~combout [16] $end
$var wire 1 /# A~combout [15] $end
$var wire 1 0# A~combout [14] $end
$var wire 1 1# A~combout [13] $end
$var wire 1 2# A~combout [12] $end
$var wire 1 3# A~combout [11] $end
$var wire 1 4# A~combout [10] $end
$var wire 1 5# A~combout [9] $end
$var wire 1 6# A~combout [8] $end
$var wire 1 7# A~combout [7] $end
$var wire 1 8# A~combout [6] $end
$var wire 1 9# A~combout [5] $end
$var wire 1 :# A~combout [4] $end
$var wire 1 ;# A~combout [3] $end
$var wire 1 <# A~combout [2] $end
$var wire 1 =# A~combout [1] $end
$var wire 1 ># A~combout [0] $end
$upscope $end
$upscope $end
$enddefinitions $end
#0
$dumpvars
b0 !
b11111111111111111111111111111111 "
0#
1$
0%
0&
1'
0(
0)
0I
0H
0G
0F
0E
0D
0C
0B
0A
0@
0?
0>
0=
0<
0;
0:
09
08
07
06
05
04
03
02
01
00
0/
0.
0-
0,
0+
0*
xJ
0K
1L
xM
1N
1O
1P
0Q
0R
0S
0T
0U
0V
0W
0X
0Y
1Z
0[
0\
0]
0^
1_
0`
0a
0b
0c
0d
0e
0f
0g
0h
0i
0j
0k
0l
0m
0n
0o
0p
0q
0r
0s
0t
0u
0v
0w
0x
0y
0z
0{
0|
0}
0~
0!!
0"!
0#!
0$!
0%!
0&!
0'!
0(!
0)!
0*!
0+!
0,!
0-!
0.!
0/!
00!
01!
02!
03!
04!
05!
06!
07!
08!
09!
0:!
0;!
0<!
0=!
0>!
0?!
0@!
0A!
0B!
0C!
0D!
0E!
0F!
0G!
0H!
0I!
0J!
0K!
0L!
0M!
0N!
0O!
0P!
0Q!
0R!
0S!
0T!
0U!
0V!
0W!
0X!
0Y!
0Z!
0[!
0\!
0]!
0^!
0_!
0`!
0a!
0b!
0c!
0d!
0e!
0f!
0g!
0h!
0i!
0j!
0k!
0l!
0m!
0n!
0o!
0p!
0q!
0r!
0s!
0t!
0u!
0v!
0w!
0x!
0y!
0z!
0{!
0|!
0}!
0~!
0!"
0""
0#"
0$"
0%"
0&"
0'"
0("
0)"
0*"
0+"
0,"
0-"
0."
0/"
00"
01"
02"
03"
04"
05"
06"
07"
08"
09"
0:"
0;"
0<"
0="
0>"
0?"
0@"
0A"
0B"
0C"
0D"
0E"
0F"
0G"
0H"
0I"
0J"
0K"
0L"
0M"
0N"
0O"
0P"
0Q"
0R"
0S"
0T"
0U"
0V"
0W"
0X"
0Y"
1Z"
0["
0\"
1|"
1{"
1z"
1y"
1x"
1w"
1v"
1u"
1t"
1s"
1r"
1q"
1p"
1o"
1n"
1m"
1l"
1k"
1j"
1i"
1h"
1g"
1f"
1e"
1d"
1c"
1b"
1a"
1`"
1_"
1^"
1]"
0>#
0=#
0<#
0;#
0:#
09#
08#
07#
06#
05#
04#
03#
02#
01#
00#
0/#
0.#
0-#
0,#
0+#
0*#
0)#
0(#
0'#
0&#
0%#
0$#
0##
0"#
0!#
0~"
0}"
$end
#3906
b1 !
1>#
0J
1["
1X"
1\"
1I
#7812
b11 !
b10 !
0>#
1=#
1J
0["
0X"
1C"
0\"
1V"
1U"
1W"
0I
1H
#11718
b11 !
1>#
0J
1["
1X"
1\"
1I
#15624
b111 !
b101 !
b100 !
0>#
0=#
1<#
1J
0["
0X"
0C"
1F"
0\"
0V"
0U"
1R"
0W"
1T"
0I
0H
1G
#19530
b101 !
1>#
0J
1["
1X"
1\"
1I
#23436
b111 !
b110 !
0>#
1=#
1J
0["
0X"
1C"
0\"
1V"
1U"
1W"
0I
1H
#27342
b111 !
1>#
0J
1["
1X"
1\"
1I
#31248
b1111 !
b1011 !
b1001 !
b1000 !
0>#
0=#
0<#
1;#
1J
0["
0X"
0C"
0F"
1O"
1>"
0\"
0V"
0U"
0R"
1P"
0W"
0T"
1Q"
0I
0H
0G
1F
#35154
b1001 !
1>#
0J
1["
1X"
1\"
1I
#39060
b1011 !
b1010 !
0>#
1=#
1J
0["
0X"
1C"
0\"
1V"
1U"
1W"
0I
1H
#42966
b1011 !
1>#
0J
1["
1X"
1\"
1I
#46872
b1111 !
b1101 !
b1100 !
0>#
0=#
1<#
1J
0["
0X"
0C"
1F"
0\"
0V"
0U"
1R"
0W"
1T"
0I
0H
1G
#50778
b1101 !
1>#
0J
1["
1X"
1\"
1I
#54684
b1111 !
b1110 !
0>#
1=#
1J
0["
0X"
1C"
0\"
1V"
1U"
1W"
0I
1H
#58590
b1111 !
1>#
0J
1["
1X"
1\"
1I
#62496
b11111 !
b10111 !
b10011 !
b10001 !
b10000 !
0>#
0=#
0<#
0;#
1:#
1J
0["
0X"
0C"
0F"
0O"
0>"
1L"
1<"
0\"
0V"
0U"
0R"
0P"
1M"
0W"
0T"
0Q"
1N"
0I
0H
0G
0F
1E
#62500
0$
1%
0_
1]
0J
0L"
0<"
1V"
1H"
1E"
1B"
1?"
1="
1:"
18"
16"
10"
1-"
1)"
1$"
1""
1~!
1{!
1q!
1l!
1g!
1`!
1]!
1Z!
1W!
1R!
1D!
1?!
1:!
19!
1.!
1)!
1'!
1%!
1#!
1x
1w
1t
1q
1o
1k
1h
1e
1b
1^
1V
1T
1S
1Q
1P"
1O"
1R"
1U"
1Y"
1L"
1;"
11"
14"
1."
1#"
1t!
1z!
1f!
1e!
1\!
1c!
1b!
1I!
1N!
1T!
1K!
15!
14!
1F!
17!
11!
1/!
1"!
1~
1}
1i
1n
1u
1x!
1r!
1Q!
1l
1Q"
1T"
1W"
1\"
1K"
13"
19"
1/"
1'"
1v!
1!"
1p!
1^!
1d!
1J!
1P!
1V!
1M!
16!
1G!
13!
10!
1$!
1!!
1j
1p
1v
1y!
1s!
1S!
1m
1F
1G
1H
1I
1D
1B
1C
1A
1@
1=
1?
1;
19
1:
14
16
18
15
12
13
11
10
1/
1.
1*
1,
1-
1>
1<
17
1+
#66402
b10001 !
1>#
1J
#70308
b10011 !
b10010 !
0>#
1=#
0J
#74214
b10011 !
1>#
1J
#78120
b10111 !
b10101 !
b10100 !
0>#
0=#
1<#
0J
#82026
b10101 !
1>#
1J
#85932
b10111 !
b10110 !
0>#
1=#
0J
#89838
b10111 !
1>#
1J
#93744
b11111 !
b11011 !
b11001 !
b11000 !
0>#
0=#
0<#
1;#
0J
#97650
b11001 !
1>#
1J
#101556
b11011 !
b11010 !
0>#
1=#
0J
#105462
b11011 !
1>#
1J
#109368
b11111 !
b11101 !
b11100 !
0>#
0=#
1<#
0J
#113274
b11101 !
1>#
1J
#117180
b11111 !
b11110 !
0>#
1=#
0J
#120000
1(
1X
1J
1["
1X"
0O"
0L"
1F"
1C"
1>"
1<"
15"
1*"
1("
1%"
1|!
1n!
1j!
1h!
0e!
0c!
1_!
1[!
1X!
0F!
1B!
1@!
1=!
1;!
18!
04!
1,!
1*!
1&!
0}
1{
1y
1r
1f
1`
1Y
1U
1R
0V"
0:"
08"
0-"
0""
0q!
0~!
0]!
0R!
0#!
0.!
0h
0t
0k
0o
#121086
b11111 !
1>#
0J
#124992
b111111 !
b101111 !
b100111 !
b100011 !
b100001 !
b100000 !
0>#
0=#
0<#
0;#
0:#
19#
1J
#125000
0%
0]
0J
1V"
0H"
0E"
0B"
0?"
0="
1:"
18"
06"
00"
1-"
0)"
0$"
1""
1~!
0{!
1q!
0l!
0g!
0`!
1]!
0Z!
0W!
1R!
0D!
0?!
0:!
09!
1.!
0)!
0'!
0%!
1#!
0x
0w
1t
0q
1o
1k
1h
0e
0b
0^
0V
0T
0S
0Q
1O"
0Y"
1L"
1e!
1c!
14!
1F!
1}
#128898
b100001 !
1>#
1J
#130000
1$
1_
0J
0["
0X"
05"
0\"
0;"
0:"
0K"
0I
0D
#132804
b100011 !
b100010 !
0>#
1=#
1J
1["
1X"
0C"
1\"
0V"
0U"
0W"
1I
0H
#136710
b100011 !
1>#
0J
0["
0X"
0\"
0I
#140616
b100111 !
b100101 !
b100100 !
0>#
0=#
1<#
1J
1["
1X"
1C"
0F"
1\"
1V"
1U"
0R"
1W"
0T"
1I
1H
0G
#144522
b100101 !
1>#
0J
0["
0X"
0\"
0I
#148428
b100111 !
b100110 !
0>#
1=#
1J
1["
1X"
0C"
1\"
0V"
0U"
0W"
1I
0H
#152334
b100111 !
1>#
0J
0["
0X"
0\"
0I
#156240
b101111 !
b101011 !
b101001 !
b101000 !
0>#
0=#
0<#
1;#
1J
1["
1X"
1C"
1F"
0O"
0>"
1\"
1V"
1U"
1R"
0P"
1W"
1T"
0Q"
1I
1H
1G
0F
#160146
b101001 !
1>#
0J
0["
0X"
0\"
0I
#164052
b101011 !
b101010 !
0>#
1=#
1J
1["
1X"
0C"
1\"
0V"
0U"
0W"
1I
0H
#167958
b101011 !
1>#
0J
0["
0X"
0\"
0I
#171864
b101111 !
b101101 !
b101100 !
0>#
0=#
1<#
1J
1["
1X"
1C"
0F"
1\"
1V"
1U"
0R"
1W"
0T"
1I
1H
0G
#175770
b101101 !
1>#
0J
0["
0X"
0\"
0I
#179676
b101111 !
b101110 !
0>#
1=#
1J
1["
1X"
0C"
1\"
0V"
0U"
0W"
1I
0H
#183582
b101111 !
1>#
0J
0["
0X"
0\"
0I
#187488
b111111 !
b110111 !
b110011 !
b110001 !
b110000 !
0>#
0=#
0<#
0;#
1:#
1J
1["
1X"
1C"
1F"
1O"
1>"
0L"
0<"
1\"
1V"
1U"
1R"
1P"
0M"
1W"
1T"
1Q"
0N"
1I
1H
1G
1F
0E
#187500
1&
0'
1%
1[
0Z
1]
0J
0Z"
1Y"
1M"
1;"
0V"
1H"
1E"
1B"
1?"
1="
1:"
08"
16"
10"
0-"
1)"
1$"
0""
0~!
1{!
0q!
1l!
1g!
1`!
0]!
1Z!
1W!
0R!
1D!
1?!
1:!
19!
0.!
1)!
1'!
1%!
0#!
1x
1w
0t
1q
0o
0k
0h
1e
1b
1^
1V
1T
1S
1Q
1N"
1K"
0P"
0O"
0R"
0U"
0Y"
0M"
1L"
0;"
01"
04"
0."
0#"
0t!
0z!
0f!
0e!
0\!
0c!
0b!
0I!
0N!
0T!
0K!
05!
04!
0F!
07!
01!
0/!
0"!
0~
0}
0i
0n
0u
0x!
0r!
0Q!
0l
0Q"
0T"
0W"
0\"
0N"
0K"
03"
09"
0/"
0'"
0v!
0!"
0p!
0^!
0d!
0J!
0P!
0V!
0M!
06!
0G!
03!
00!
0$!
0!!
0j
0p
0v
0y!
0s!
0S!
0m
1E
1D
0F
0G
0H
0I
0E
0D
0B
0C
0A
0@
0=
0?
0;
09
0:
04
06
08
05
02
03
01
00
0/
0.
0*
0,
0-
0>
0<
07
0+
#190000
0(
0X
1J
0["
0X"
1O"
0L"
0F"
0C"
0>"
1<"
15"
0*"
0("
0%"
0|!
0n!
0j!
0h!
1e!
1c!
0_!
0[!
0X!
1F!
0B!
0@!
0=!
0;!
08!
14!
0,!
0*!
0&!
1}
0{
0y
0r
0f
0`
0Y
0U
0R
1V"
0:"
18"
1-"
1""
1q!
1~!
1]!
1R!
1#!
1.!
1h
1t
1k
1o
#191394
b110001 !
1>#
0J
1["
1X"
#195300
b110011 !
b110010 !
0>#
1=#
1J
0["
0X"
1C"
0V"
#199206
b110011 !
1>#
0J
1["
1X"
#203112
b110111 !
b110101 !
b110100 !
0>#
0=#
1<#
1J
0["
0X"
0C"
1F"
1V"
#207018
b110101 !
1>#
0J
1["
1X"
#210924
b110111 !
b110110 !
0>#
1=#
1J
0["
0X"
1C"
0V"
#214830
b110111 !
1>#
0J
1["
1X"
#218736
b111111 !
b111011 !
b111001 !
b111000 !
0>#
0=#
0<#
1;#
1J
0["
0X"
0C"
0F"
0O"
1>"
1V"
#222642
b111001 !
1>#
0J
1["
1X"
#226548
b111011 !
b111010 !
0>#
1=#
1J
0["
0X"
1C"
0V"
#230454
b111011 !
1>#
0J
1["
1X"
#234360
b111111 !
b111101 !
b111100 !
0>#
0=#
1<#
1J
0["
0X"
0C"
1F"
1V"
#238266
b111101 !
1>#
0J
1["
1X"
#242172
b111111 !
b111110 !
0>#
1=#
1J
0["
0X"
1C"
0V"
#246078
b111111 !
1>#
0J
1["
1X"
#249984
b1111111 !
b1011111 !
b1001111 !
b1000111 !
b1000011 !
b1000001 !
b1000000 !
0>#
0=#
0<#
0;#
0:#
09#
18#
1J
0["
0X"
0C"
0F"
1O"
0>"
1L"
0<"
05"
1*"
1V"
1:"
08"
#250000
1'
1Z
0J
1Y"
1\
1\"
1W"
1S"
1Q"
1N"
1K"
12"
1/"
1+"
1'"
1!"
1w!
1u!
1s!
1p!
1d!
1^!
1U!
1S!
1O!
1L!
1H!
1G!
16!
12!
10!
1$!
1!!
1v
1p
1m
1j
1T"
13"
02"
1,"
1y!
1v!
1V!
1P!
1M!
1J!
13!
1I
1H
1F
1E
1D
1A
1@
1?
1<
1;
1:
19
17
13
12
10
1/
1.
1-
1,
1+
1*
03"
0/"
1&"
1G
1B
1>
1=
18
16
15
14
11
0'"
1}!
0B
0A
0!"
1i!
0@
0w!
1k!
0?
0y!
0u!
1m!
0v!
0s!
1o!
0>
0p!
1a!
0=
0<
0d!
1Y!
0;
0^!
1W
0:
0U!
1<!
09
0V!
0S!
1>!
0O!
1A!
08
07
0P!
0L!
1C!
0M!
0H!
1E!
06
0J!
0G!
1(!
05
06!
1+!
04
03
02!
1-!
02
03!
00!
1z
0$!
1|
01
00
0!!
1s
0/
0v
1a
0.
0p
1c
0-
0m
1d
0,
0j
1g
0+
0*
1)
#253890
b1000001 !
1>#
1J
1["
1X"
1A"
0Y"
0W"
1D"
0\"
0S"
1G"
0H
0I
0T"
0Q"
1I"
0N"
1J"
0G
0F
0K"
17"
0E
19"
0D
1C
#257796
b1000011 !
b1000010 !
0>#
1=#
0J
0["
0X"
1C"
0A"
1Y"
0V"
1\"
1I
#261702
b1000011 !
1>#
1J
1["
1X"
1A"
0Y"
1W"
0\"
1H
0I
#265608
b1000111 !
b1000101 !
b1000100 !
0>#
0=#
1<#
0J
0["
0X"
0C"
1F"
0A"
1Y"
1V"
1S"
0D"
1\"
1T"
0S"
1I
1G
0T"
0G
#269514
b1000101 !
1>#
1J
1["
1X"
1A"
0Y"
0W"
1D"
0\"
1S"
0H
0I
1T"
1G
#273420
b1000111 !
b1000110 !
0>#
1=#
0J
0["
0X"
1C"
0A"
1Y"
0V"
1\"
1I
#277326
b1000111 !
1>#
1J
1["
1X"
1A"
0Y"
1W"
0\"
1H
0I
#281232
b1001111 !
b1001011 !
b1001001 !
b1001000 !
0>#
0=#
0<#
1;#
0J
0["
0X"
0C"
0F"
0O"
1>"
0A"
1Y"
1V"
0S"
1Q"
0D"
1\"
0T"
1F
1S"
0G"
1I
0G
1T"
0Q"
1G
0F
#285138
b1001001 !
1>#
1J
1["
1X"
1A"
0Y"
0W"
1D"
0\"
0S"
1G"
0H
0I
0T"
1Q"
0G
1F
